{
  "development": {
    "username": "behzad",
    "password": "p@ssw0rd",
    "database": "story_api",
    "host": "127.0.0.1",
    "dialect": "postgres"
  },
  "test": {
    "username": "root",
    "password": null,
    "database": "database_test",
    "host": "127.0.0.1",
    "dialect": "mysql"
  },
  "production": {
    "username": "root",
    "password": null,
    "database": "database_production",
    "host": "127.0.0.1",
    "dialect": "mysql"
  }
}
